    0.0125    300.47      3.60
    0.0375    255.61      2.70
    0.0625    194.12      2.14
    0.0875    140.68      1.70
    0.1125    108.88      1.42
    0.1375     86.31      1.23
    0.1625     70.98      1.03
    0.1875     57.25      0.89
    0.2125     45.73      0.77
    0.2375     37.61      0.67
    0.2625     31.64      0.60
    0.2875     25.25      0.52
    0.3125     21.18      0.46
    0.3375     18.71      0.42
    0.3625     14.94      0.37
    0.3875     11.73      0.32
    0.4125     10.36      0.29
    0.4375      9.17      0.27
    0.4625      7.71      0.24
    0.4875      6.69      0.22
    0.5125      5.31      0.19
    0.5375      5.06      0.18
    0.5625      4.27      0.17
    0.5875      3.44      0.15
    0.6125      2.91      0.13
    0.6375      2.68      0.12
    0.6625      2.28      0.11
    0.6875      2.15      0.11
    0.7125      1.65      0.09
    0.7375      1.43      0.09
    0.7625      1.20      0.08
    0.7875      1.10      0.07
    0.8125      0.90      0.06
    0.8375      0.81      0.06
    0.8625      0.75      0.06
    0.8875      0.65      0.05
    0.9125      0.60      0.05
    0.9375      0.49      0.04
    0.9625      0.53      0.05
    0.9875      0.38      0.04
